march_april_ndgraphs
…
rted_morethan5 %>% 
  writexl::write_xlsx("data/drop_counterspeech_pattern_controversial.xlsx")

rted_morethan5_not_hate_speech <- readxl::read_excel("data/drop_counterspeech_pattern_controversial_arron.xlsx") %>% 
  janitor::clean_names() %>% 
  filter(hate_speech_or_counter_speech_neutral!="hate_speech") %>% 
  select(text)

rted_morethan5_not_hate_speech

# A tibble: 234 x 1
   text                                                                    
   <chr>                                                                   
 1 "RT @kylam_official: Chinese virus?????? How many times is this racist …
 2 "#AlibabaGroup banning the export of all epidemic control related produ…
 3 "Does anyone else find it interesting that confirmed cases of #COVID19 …
 4 "RT @DilleyShow: I think I figured out why the media is absolutely pani…
 5 "Don't be surprised by the latest twist of this #CCPVirus affair. A law…
 6 "You thought Indians were being stupid about Corona?\r\n\r\nThe Italian…
 7 "The lack of evidence on the origin of the #CCPvirus is especially trou…
 8 "Thank God 4 this game charger in🇺🇸favor. Emperor Corona has awakened a…
 9 "#freechina! How long will it take for Chinese people to wake up and fi…
10 "#Hollywood actor Keith Lawrence Middlebrook has been arrested by the @…
# … with 224 more rows
…
The frequency of anti-Asian slurs

# TODO: look for tweets retweeted more than 5 times,
# eyeball them
# remove counter speech RTs. 
  
data_processed %>% 
  filter(pattern_asian_slur_bool==TRUE) %>% 
  # distinct(text, .keep_all = T) %>%
  mutate( pattern_asian_slur_match= as.character(pattern_asian_slur_match)) %>% 
  count(pattern_asian_slur_match,sort = T) 

# A tibble: 391 x 2
   pattern_asian_slur_match     n
   <chr>                    <int>
 1 CCPVirus                  5272
 2 Kung Flu                  1380
 3 KungFlu                    954
 4 Chang                      570
 5 CCPvirus                   385
 6 kung flu                   279
 7 chinazi                    261
 8 Chinazi                    238
 9 Kung flu                   232
10 Kung-Flu                   207
# … with 381 more rows
…
